ptmin	maxlogw
43	8.98526
49	8.14766
56	7.30149
74	5.6915
84	4.9611
97	4.17761
114	3.38643
133	2.60288
153	1.93122
174	1.34469
196	0.7367
220	0.169605
245	-0.395402
272	-0.895299
300	-1.37044
330	-1.83443
362	-2.29914
395	-2.77003
430	-3.18715
468	-3.62064
507	-4.00985
548	-4.40809
592	-4.71103
638	-5.08354
686	-5.47549
737	-5.80917
790	-6.13229
846	-6.34527
905	-6.78283
967	-7.08308
1032	-7.35986
1101	-7.57991
1172	-7.93616
1248	-8.03432
1327	-8.40977
1410	-8.7788
1497	-9.17642
1588	-9.32636
1684	-9.36555
1784	-9.80082
1890	-9.79598
2000	-10.4664
2116	-10.2953
2238	-10.6034
2366	-12.3509
2500	-8.32631
2640	-6.35951
2787	-8.16716
2941	-46.2887
3103	-15.5306
3450	-12.2851
4037	-15.7889
