ptmin	maxlogw
43	9.68611
49	8.90803
56	8.00236
64	7.30324
74	6.50247
84	5.76104
97	4.9808
114	4.14018
133	3.40239
153	2.71426
174	2.04837
196	1.44632
220	0.877552
245	0.345936
272	-0.141193
300	-0.660944
330	-1.11
362	-1.57117
395	-1.99038
430	-2.44309
468	-2.85773
507	-3.23775
548	-3.60468
592	-4.00519
638	-4.33737
686	-4.69161
737	-5.04443
790	-5.40349
846	-5.7731
905	-6.09756
967	-6.39438
1032	-6.76643
1101	-7.08907
1172	-7.40719
1248	-7.76271
1327	-8.07007
1410	-8.33662
1497	-8.61793
1588	-9.11536
1684	-9.35787
1784	-9.61952
1890	-9.9654
2000	-10.1307
2116	-10.3223
2238	-10.9759
2366	-10.9927
2500	-11.6631
2640	-12.7629
2787	-12.5808
2941	-12.6617
3103	-12.4975
3273	-10.4962
3450	-11.5248
3637	-15.0079
3832	-16.2145
