ptmin	maxlogw
49	3.9
56	3.9
64	3.9
74	3.9
84	3.9
97	2.7
114	0.7
133	0.7
153	0.7
174	-1.6
196	-1.6
220	-1.6
245	-3.2
272	-3.2
300	-3.2
330	-3.2
362	-4.8
395	-4.8
430	-4.8
468	-4.8
507	-4.8
548	-7.9
592	-7.9
638	-7.9
686	-7.9
737	-7.9
790	-7.9
846	-8.7
905	-8.7
967	-8.7
1032	-11.1
1101	-11.1
1172	-11.1
1248	-11.1
1327	-11.1
1410	-13.3
1497	-13.3
1588	-13.3
1684	-13.3
1784	-13.3
1890	-13.8
2000	-13.8
2116	-13.8
2238	-15
2366	-15
2500	-15
2640	-16.6
2787	-16.6
2941	-16.6
3103	-16.6
3273	-18.7
3450	-18.7
3637	-18.7
3832	-21.5
4037	-21.5
